4 Bee colony losses: visualizing quantities with Poisson disk sampling – The Art of Data Visualization with ggplot2
…
You can see in Figure 4.7 that the location of the points for Poisson disk sampling is not actually completely random, and is much nicer in appearance.

Returning to our bees_grid data, we use unnest() from tidyr to expand the pts list column into separate rows and columns, and make sure that the state column is a factor, ordered by the state_levels variable we defined earlier. 

bees_plot_data <- bees_grid |>
  unnest(pts) |>
  mutate(
    state = factor(state, levels = state_levels)
  )

This generates a data set of the following form:

bees_plot_data

# A tibble: 7,554 × 5
    year state      colony_n     x     y
   <dbl> <fct>         <dbl> <dbl> <dbl>
 1  2015 California   750000  5.29  5.79
 2  2015 California   750000  5.67  5.44
 3  2015 California   750000  4.78  5.70
 4  2015 California   750000  5.40  5.30
 5  2015 California   750000  5.76  5.01
 6  2015 California   750000  5.29  4.89
 7  2015 California   750000  5.07  5.50
 8  2015 California   750000  5.90  5.70
 9  2015 California   750000  5.09  5.18
10  2015 California   750000  5.60  5.93
# ℹ 7,544 more rows
…
